{
com.badlogic.gdx.scenes.scene2d.ui.Button$ButtonStyle: {
	play: { down: play-dn, up: play-up },
	options: { down: options-dn, up: options-up},
	pause: {down: pause-dn, up: pause-up}
	close: {down: close-dn, up: close-up}
},

com.badlogic.gdx.scenes.scene2d.ui.Image: {
	background: {drawable: background }
}

}
